root(ROOT-0, finds-2)
nsubj(finds-2, S1-1)
dobj(finds-2, fault-3)
det(stance-6, the-5)
prep_with(finds-2, stance-6)
dobj(ship-10, that-7)
nsubj(ship-10, republicans-8)
aux(ship-10, would-9)
rcmod(stance-6, ship-10)
amod(people-12, gay-11)
dobj(ship-10, people-12)
nn(camps-15, concentration-14)
prep_to(ship-10, camps-15)
