root(ROOT-0, appears-3)
poss(name-2, His-1)
nsubj(appears-3, name-2)
prep(appears-3, in-4)
det(citations-6, the-5)
pobj(in-4, citations-6)
prep(citations-6, of-7)
advmod(brief-11, virtually-8)
det(brief-11, every-9)
amod(brief-11, legal-10)
pobj(of-7, brief-11)
vmod(brief-11, filed-12)
prep(filed-12, by-13)
pobj(by-13, opponents-14)
prep(opponents-14, of-15)
amod(marriage-17, same-sex-16)
pobj(of-15, marriage-17)
