root(ROOT-0, unfair-3)
nsubj(unfair-3, it-1)
cop(unfair-3, is-2)
aux(have-5, to-4)
xcomp(unfair-3, have-5)
dobj(have-5, laws-6)
prep(have-5, based-7)
pcomp(based-7, on-8)
amod(text-10, religious-9)
pobj(on-8, text-10)
nsubj(serve-13, that-11)
aux(serve-13, does-12)
rcmod(text-10, serve-13)
prep(serve-13, as-14)
poss(text-18, everyone-15)
possessive(everyone-15, 's-16)
amod(text-18, religious-17)
pobj(as-14, text-18)
