root(ROOT-0, are-4)
nsubj(are-4, S1-1)
cc(S1-1, and-2)
conj(S1-1, S2-3)
prep(are-4, in-5)
amod(argument-7, unfriendly-6)
pobj(in-5, argument-7)
prep(argument-7, about-8)
amod(marriage-10, gay-9)
pobj(about-8, marriage-10)
