root(ROOT-0, seen-11)
nsubj(seen-11, S2-2)
rcmod(S2-2, talks-4)
prep(talks-4, about-5)
poss(majority-8, State-6)
possessive(State-6, 's-7)
pobj(about-5, majority-8)
aux(seen-11, has-9)
advmod(seen-11, traditionally-10)
det(issue-13, an-12)
dobj(seen-11, issue-13)
prep(seen-11, as-14)
pobj(as-14, immoral-15)
