root(ROOT-0, unable-3)
nsubj(unable-3, S2-1)
cop(unable-3, was-2)
aux(locate-5, to-4)
xcomp(unable-3, locate-5)
det(information-7, any-6)
dobj(locate-5, information-7)
prep(information-7, on-8)
det(group-10, the-9)
pobj(on-8, group-10)
amod(group-10, other-11)
prep(locate-5, than-12)
pobj(than-12, articles-13)
prep(locate-5, by-14)
pobj(by-14, liberals-15)
