root(ROOT-0, naive-5)
nsubj(naive-5, 1-1)
nsubj(naive-5, It-2)
cop(naive-5, 's-3)
advmod(naive-5, too-4)
aux(expect-7, to-6)
xcomp(naive-5, expect-7)
prep(expect-7, to-8)
det(politician-10, a-9)
pobj(to-8, politician-10)
aux(give-12, to-11)
vmod(politician-10, give-12)
poss(view-14, their-13)
dobj(give-12, view-14)
prep(give-12, on-15)
pobj(on-15, matters-16)
