root(ROOT-0, need-5)
prep(need-5, according-1)
pcomp(according-1, to-2)
pobj(to-2, him-3)
nsubj(need-5, people-4)
aux(put-7, to-6)
xcomp(need-5, put-7)
dobj(put-7, expectation-8)
prep(expectation-8, for-9)
pobj(for-9, politicians-10)
aux(clear-14, to-11)
cop(clear-14, be-12)
advmod(clear-14, more-13)
vmod(put-7, clear-14)
cc(clear-14, and-15)
conj(clear-14, honest-16)
prep(clear-14, about-17)
poss(opinions-19, their-18)
pobj(about-17, opinions-19)
