root(ROOT-0, useful-4)
nsubj(useful-4, it-1)
aux(useful-4, would-2)
cop(useful-4, be-3)
aux(discuss-6, to-5)
xcomp(useful-4, discuss-6)
det(ways-8, the-7)
dobj(discuss-6, ways-8)
amod(marriage-10, same-sex-9)
nsubj(benefit-12, marriage-10)
aux(benefit-12, could-11)
rcmod(ways-8, benefit-12)
dobj(benefit-12, society-13)
advmod(of-15, instead-14)
prep(benefit-12, of-15)
pcomp(of-15, moving-16)
prep(moving-16, on-17)
pcomp(on-17, to-18)
det(discussion-20, a-19)
pobj(to-18, discussion-20)
prep(discussion-20, of-21)
pobj(of-21, morality-22)
