root(ROOT-0, enough-13)
advmod(enough-13, even-1)
amod(unions-4, viewing-2)
amod(unions-4, civil-3)
nsubj(enough-13, unions-4)
prep(unions-4, in-5)
det(light-8, a-6)
amod(light-8, positive-7)
pobj(in-5, light-8)
aux(enough-13, would-9)
cc(enough-13, and-10)
aux(enough-13, could-11)
cop(enough-13, be-12)
