root(ROOT-0, contradict-2)
aux(contradict-2, To-1)
dobj(contradict-2, this-3)
nn(states-6, S2-5)
appos(this-3, states-6)
dobj(vote-11, that-7)
det(Justice-9, each-8)
nsubj(vote-11, Justice-9)
aux(vote-11, will-10)
rcmod(states-6, vote-11)
prep(vote-11, to-12)
pobj(to-12, side-13)
prep(vote-11, with-14)
amod(marriage-16, gay-15)
pobj(with-14, marriage-16)
