root(ROOT-0, effects-3)
det(effects-3, a-1)
nn(effects-3, law-2)
det(individuals-5, an-4)
poss(life-7, individuals-5)
dep(effects-3, life-7)
prep(life-7, in-8)
det(way-11, an-9)
amod(way-11, unjust-10)
pobj(in-8, way-11)
