root(ROOT-0, serves-3)
csubj(serves-3, Redefining-1)
advmod(Redefining-1, only-2)
aux(hurt-5, to-4)
xcomp(serves-3, hurt-5)
det(people-8, the-6)
amod(people-8, many-7)
dobj(hurt-5, people-8)
nsubj(see-10, who-9)
rcmod(people-8, see-10)
dobj(see-10, marriage-11)
prep(see-10, as-12)
det(bond-15, a-13)
amod(bond-15, sacred-14)
pobj(as-12, bond-15)
prep(bond-15, between-16)
pobj(between-16, man-17)
cc(man-17, and-18)
conj(man-17, woman-19)
