root(ROOT-0, legal-7)
det(nature-2, the-1)
nsubj(legal-7, nature-2)
prep(nature-2, of-3)
pobj(of-3, marriage-4)
cop(legal-7, is-5)
advmod(legal-7, both-6)
cc(legal-7, and-8)
conj(legal-7, religious-9)
