root(ROOT-0, asserts-2)
nsubj(asserts-2, S2-1)
advmod(asserts-2, vaguely-3)
mark(absolves-16, that-4)
poss(belief-6, her-5)
nsubj(absolves-16, belief-6)
mark(a-11, that-7)
nsubj(a-11, Christ-9)
cop(a-11, is-10)
dep(belief-6, a-11)
vmod(a-11, resurrected-12)
vmod(a-11, being-13)
advmod(absolves-16, somehow-15)
ccomp(vaguely-3, absolves-16)
dobj(absolves-16, her-17)
prep(her-17, of-18)
pobj(of-18, prejudice-19)
prep(absolves-16, in-20)
auxpass(opposed-23, being-21)
advmod(opposed-23, generally-22)
pcomp(in-20, opposed-23)
prep(opposed-23, to-24)
pobj(to-24, homosexuality-25)
