root(ROOT-0, lead-5)
amod(marriage-2, gay-1)
nsubj(lead-5, marriage-2)
aux(lead-5, will-3)
advmod(lead-5, ultimately-4)
prep(lead-5, to-6)
det(bill-9, a-7)
nn(bill-9, marriage-8)
pobj(to-6, bill-9)
prep(bill-9, for-10)
pobj(for-10, polygamists-11)
