root(ROOT-0, feel-11)
nn(talks-2, S2-1)
nsubj(feel-11, talks-2)
advmod(used-7, how-4)
nsubjpass(used-7, violence-5)
auxpass(used-7, is-6)
prepc_about(talks-2, used-7)
aux(make-9, to-8)
xcomp(used-7, make-9)
dobj(make-9, people-10)
dep(feel-11, threatened-12)
aux(feel-14, to-13)
xcomp(threatened-12, feel-14)
det(way-17, a-15)
amod(way-17, certain-16)
dobj(feel-14, way-17)
det(topic-20, a-19)
prep_about(feel-14, topic-20)
prep_about(feel-14, debate-22)
conj_or(topic-20, debate-22)
