root(ROOT-0, states-2)
nsubj(states-2, He-1)
poss(wish-4, his-3)
dobj(states-2, wish-4)
aux(move-6, to-5)
vmod(wish-4, move-6)
amod(concerns-9, past-7)
amod(concerns-9, fiscal-8)
dobj(move-6, concerns-9)
vmod(wish-4, move-11)
conj_and(move-6, move-11)
advmod(move-11, ont-12)
det(moral-15, the-13)
det(moral-15, the-14)
dobj(move-11, moral-15)
nn(concerns-18, health-17)
dobj(move-11, concerns-18)
conj_and(moral-15, concerns-18)
amod(marriage-21, same-sex-20)
prep_of(moral-15, marriage-21)
