root(ROOT-0, get-4)
nsubj(get-4, he-2)
aux(get-4, must-3)
det(majority-6, a-5)
dobj(get-4, majority-6)
prep(majority-6, of-7)
dep(of-7, people-8)
aux(do-10, to-9)
vmod(people-8, do-10)
dobj(do-10, it-11)
