root(ROOT-0, based-8)
poss(view-4, S1-1)
amod(view-4, religious-3)
nsubjpass(based-8, view-4)
prep_of(view-4, marriage-6)
auxpass(based-8, is-7)
num(people-11, two-10)
poss(love-13, people-11)
prep_on(based-8, love-13)
det(other-16, each-15)
prep_for(love-13, other-16)
