root(ROOT-0, way-5)
nsubj(way-5, it-1)
cop(way-5, is-2)
neg(way-5, not-3)
det(way-5, the-4)
mark(created-10, that-6)
det(children-8, the-7)
nsubjpass(created-10, children-8)
auxpass(created-10, are-9)
ccomp(way-5, created-10)
nsubj(important-13, that-11)
cop(important-13, is-12)
ccomp(created-10, important-13)
