root(ROOT-0, asked-2)
nsubj(asked-2, He-1)
dobj(asked-2, S2-3)
dobj(was-7, what-4)
poss(problem-6, his-5)
nsubj(was-7, problem-6)
rcmod(S2-3, was-7)
advmod(want-14, why-9)
nsubj(want-14, he-10)
advmod(want-14, personally-11)
aux(want-14, did-12)
neg(want-14, not-13)
advcl(was-7, want-14)
amod(marriage-16, gay-15)
dobj(want-14, marriage-16)
