root(ROOT-0, had-6)
preconj(S1-2, Both-1)
nsubj(had-6, S1-2)
cc(S1-2, and-3)
conj(S1-2, S2-4)
aux(had-6, have-5)
dobj(had-6, experience-7)
prep(had-6, with-8)
pobj(with-8, marriage-9)
nn(states-12, S2-11)
appos(marriage-9, states-12)
dobj(good-17, that-13)
nn(benefits-15, marriage-14)
nsubj(good-17, benefits-15)
cop(good-17, are-16)
rcmod(states-12, good-17)
prep(good-17, because-18)
pcomp(because-18, of-19)
nn(intervention-21, government-20)
pobj(of-19, intervention-21)
