(S1 (NP (NNP <PARAGRAPH>)))

(S1 (S (NP (NNP S1:1)) (VP (VBD started) (NP (PRP$ his) (NNS comments)) (PP (IN by) (S (VP (VBG talking) (PP (IN about) (NP (DT the) (NN fact) (SBAR (SBAR (IN that) (S (ADVP (RB typically)) (NP (JJ only) (NNS spouses)) (VP (AUX are) (ADJP (JJ eligible) (PP (IN for) (NP (NN health) (NN care))))))) (CC and) (SBAR (IN that) (S (SBAR (IN if) (S (NP (PRP it)) (VP (AUX is) (ADJP (ADJP (JJ illegal)) (SBAR (IN for) (S (NP (NNS gays)) (VP (TO to) (VP (VB marry) (PP (IN in) (NP (NNP VA))) (PP (RB then) (IN of) (NP (NN course))))))))))) (NP (EX there)) (VP (MD would) (VP (AUX be) (NP (DT no) (NN health) (NN care) (NN coverage)) (PP (IN for) (NP (PRP them))) (PP (IN in) (NP (NNP VA)))))))))))))) (. .)))

(S1 (S (NP (PRP He)) (ADVP (RB then)) (VP (VBD compared) (NP (DT this)) (PP (TO to) (SBAR (WHNP (WP what)) (S (VP (VBZ happens) (PP (IN with) (NP (NP (DT the) (NN girlfriend)) (PP (IN of) (NP (NP (DT a) (JJ straight) (NN guy)) (SBAR (WHNP (WP who)) (S (ADVP (RB cannot)) (VP (VBP get) (NP (PRP$ his) (NN healthcare) (NNS benefits)))))))))))))) (. .)))

(S1 (S (NP (PRP He)) (ADVP (RB then)) (VP (VBD said) (SBAR (IN that) (S (NP (PRP he)) (VP (VBZ hopes) (SBAR (IN that) (S (NP (JJ gay) (NN marriage)) (VP (VB stay) (PP (IN out) (PP (IN of) (NP (NNP VA)))) (SBAR (IN so) (S (S (NP (EX there)) (VP (MD will) (RB not) (VP (AUX be) (NP (NN trouble))))) (CC and) (S (NP (DT that) (JJ gay) (NN marriage)) (VP (MD will) (VP (AUX be) (VP (VBN outlawed) (ADVP (RB everywhere)) (SBAR (RB so) (IN that) (S (NP (NNS gays)) (VP (MD will) (VP (VB stop) (S (VP (VBG complaining) (PP (IN about) (NP (NP (DT the) (NN lack)) (PP (IN of) (NP (NN healthcare)))))))))))))))))))))))) (. .)))

(S1 (S (NP (NNP S2)) (VP (VBD pointed) (PRT (RP out)) (NP (DT the) (NN fact) (SBAR (IN that) (S (NP (DT the) (JJ straight) (NN guy)) (VP (MD can) (VP (VP (VB marry)) (CC or) (VP (AUX have) (NP (DT a) (JJ common) (NN law) (NN relationship)))))))) (SBAR (IN so) (S (NP (PRP$ his) (NN girlfriend)) (VP (MD can) (VP (VB get) (NP (NNS benefits))))))) (. .)))

