(S1 (NP (NNP <PARAGRAPH>)))

(S1 (S (NP (NNP S1) (CC and) (NNP S2)) (VP (AUX are) (VP (VBG pondering) (NP (NP (DT the) (NN future)) (PP (IN of) (NP (JJ gay) (NN marriage) (NNS laws)))) (PP (IN in) (NP (DT the) (NNP United) (NNPS States))))) (. .)))

(S1 (S (NP (NNP S1)) (VP (VBZ posits) (SBAR (SBAR (IN that) (S (NP (NP (NNPS States)) (PP (IN on) (NP (DT the) (NNP East) (CC and) (NNP West) (NNP Coasts)))) (VP (MD will) (VP (AUX have) (NP (JJ gay) (NN marriage) (NNS laws)))))) (, ,) (CC but) (SBAR (IN that) (S (NP (JJ mosts) (NNS states)) (VP (MD will) (VP (AUX be) (ADJP (JJ able) (S (VP (TO to) (VP (VB prevent) (NP (PRP them)) (PP (IN with) (NP (NP (NNS laws)) (PP (IN of) (NP (PRP$ their) (JJ own))) (SBAR (WHNP (WDT which)) (S (VP (VB define) (NP (NN marriage)) (PP (IN as) (IN between) (NP (NP (DT a) (NN man)) (CC and) (NP (DT a) (NN woman))))))))))))))))))) (. .)))

(S1 (S (NP (NNP S2)) (VP (AUX is) (ADJP (JJ optimistic)) (SBAR (IN that) (S (NP (DT the) (NNP Supreme) (NNP Court)) (VP (MD will) (VP (VB find) (NP (NP (NN State) (NNS laws)) (SBAR (WHNP (WDT that)) (S (VP (VBP ban) (S (NP (JJ gay) (NN marriage)) (ADJP (JJ unconstitutional)) (SBAR (IN if) (S (NP (NNP Congress)) (VP (VBZ acts) (S (VP (TO to) (VP (VB remove) (NP (NP (NN DOMA) (NN [Defense)) (PP (IN of) (NP (NN Marriage)))) (NP (NNP Act) (CD -RSB-)))))))))))))))))) (. .)))

(S1 (S (NP (NNP S1)) (VP (VBZ questions) (SBAR (WHADVP (WRB why)) (S (NP (DT the) (NNP Court)) (VP (AUX does) (RB not) (VP (VB find) (S (NP (NNP DOMA)) (ADJP (JJ unconstitutional))) (, ,) (SBAR (WHPP (TO to) (WHNP (WDT which))) (S (NP (NNP S2)) (VP (VBZ asserts) (SBAR (S (NP (PRP it)) (VP (AUX has) (RB not) (VP (AUX had) (NP (DT the) (NN opportunity) (S (VP (TO to) (VP (AUX do) (ADVP (RB so)) (ADVP (RB yet)))))))))))))))))) (. .)))

(S1 (S (NP (NNP S2)) (ADVP (RB also)) (VP (VBZ argues) (SBAR (SBAR (IN that) (S (NP (NP (NN choice)) (PP (IN of) (NP (NP (NN law) (NNS rules)) (PP (IN in) (NP (DT the) (JJ various) (NNS States)))))) (VP (MD will) (VP (VB result) (PP (IN in) (NP (NP (JJ gay) (NNS marriages)) (VP (RB not) (AUXG being) (VP (VBN recognized) (PP (IN in) (NP (NP (NNS States)) (SBAR (WHADVP (WRB where)) (S (NP (EX there)) (VP (AUX is) (NP (DT no) (JJ gay) (NN marriage))))))))))))))) (, ,) (CC and) (SBAR (IN that) (S (NP (NNS States)) (VP (AUX have) (RB historically) (ADVP (RB already)) (VP (AUX done) (ADVP (RB so)) (PP (IN on) (NP (DT that) (NN basis))))))))) (. .)))

(S1 (S (NP (PRP He)) (ADVP (RB further)) (VP (VBZ asserts) (SBAR (IN that) (S (NP (NP (NN resort)) (PP (TO to) (NP (NN choice))) (PP (IN of) (NP (NN law) (NNS rules)))) (VP (VBZ means) (SBAR (IN that) (S (NP (NP (DT the) (NNP FFC) (NN [Full) (NN Faith) (CC and) (NN Credit) (NN Clause) (NN -RSB-)) (PP (IN of) (NP (DT the) (NNP Constitution)))) (VP (AUX is) (RB not) (VP (VBN addressed) (PP (IN in) (NP (DT this) (NN context))))))))))) (. .)))

