(S1 (NP (NNP <PARAGRAPH>)))

(S1 (S (NP (NNP S1)) (VP (VBZ cites) (NP (DT an) (NN article)) (PP (IN by) (NP (NP (DT a) (NN law) (NN professor)) (SBAR (WHNP (WDT which)) (S (VP (VBZ notes) (SBAR (IN that) (S (NP (NP (NNS opponents)) (PP (IN of) (NP (JJ gay) (NN marriage)))) (VP (VBP use) (NP (NP (JJ many)) (PP (IN of) (NP (NP (DT the) (JJ same) (NNS arguments)) (SBAR (WHNP (WDT that)) (S (VP (AUX were) (VP (VBN used) (PP (IN by) (NP (NP (NNS opponents)) (PP (IN of) (NP (JJ interracial) (NN marriage))))))))))))))))))))) (. .)))

(S1 (S (NP (NNP S2)) (VP (VBZ claims) (SBAR (S (NP (PRP she)) (VP (VP (VBZ supports) (NP (JJ interracial) (NN marriage))) (, ,) (VP (VBD provided) (SBAR (S (NP (PRP it)) (VP (AUX is) (ADJP (JJ heterosexual)))))) (, ,) (CC and) (VP (NNS notes) (SBAR (IN that) (S (NP (PRP she)) (VP (AUX has) (RB not) (VP (VBN made) (NP (NP (JJ inapplicable) (ADJP (JJ separate) (CC but) (JJ equal)) (NNS arguments)) (VP (VBN suggested) (PP (IN by) (NP (DT the) (NN analogy)))))))))))))) (. .)))

(S1 (S (NP (PRP She)) (VP (VP (VBZ purports) (S (VP (VP (TO to) (VP (AUX have) (NP (JJ gay) (NNS friends)))) (CC and) (VP (TO to) (VP (AUX be) (ADJP (JJ sympathetic) (PP (TO to) (NP (NP (JJ gay) (NNS rights)) (CC and) (NP (JJ civil) (NNS unions)))))))))) (CC but) (VP (VBZ opposes) (NP (JJ gay) (NN marriage)) (PP (IN on) (NP (NP (DT the) (NNS grounds)) (SBAR (WHNP (IN that)) (S (NP (PRP it)) (VP (AUX does) (RB not) (VP (VB meet) (NP (NP (PRP$ her) (NN understanding)) (PP (IN of) (NP (DT the) (NN word) (NN marriage)))))))))))) (. .)))

(S1 (S (NP (NNP S1)) (VP (VBZ points) (PRT (RP out)) (SBAR (SBAR (IN that) (S (NP (PRP she)) (VP (AUX is) (VP (VBG using) (NP (NN form)) (PP (IN over) (NP (NN substance))))))) (, ,) (CC and) (SBAR (IN that) (S (NP (NP (DT the) (NN meaning) (CC or) (NN definition)) (PP (IN of) (NP (NN marriage)))) (VP (MD can) (VP (VB change) (PP (IN over) (NP (NN time))) (, ,) (S (VP (VBG noting) (SBAR (IN that) (S (NP (DT the) (NN public)) (VP (VP (ADVP (RB universally)) (VBZ accepts)) (CC and) (VP (VBZ refers) (PP (TO to) (NP (DT the) (NNP Irag) (NNP War)))) (, ,) (PP (IN despite) (NP (DT the) (NN fact) (SBAR (IN that) (S (NP (DT the) (NNP U.S.)) (ADVP (RB never)) (VP (VBD declared) (NP (NP (NN war)) (PP (IN against) (NP (NP (NP (NNP Iraq)) (, ,) (CC or) (NP (NNP Viet) (NNP Nam))) (CC or) (NP (NNP Korea))))) (ADVP (RB either)))))))))))))))))) (. .)))

(S1 (S (NP (PRP He)) (VP (VBZ suggests) (SBAR (S (S (VP (VBG accepting) (NP (DT an) (JJ undeclared) (NN war)) (PP (IN as) (NP (DT a) (NN war))))) (VP (AUX does) (ADJP (ADJP (JJR less) (NN violence) (PP (TO to) (NP (NP (DT the) (NN meaning)) (PP (IN of) (NP (DT the) (NN term) (NN war)))))) (SBAR (IN than) (S (S (VP (VBG substituting) (NP (DT a) (NNP Jack)) (PP (IN for) (NP (DT a) (NAC (NNP Jill) (PP (IN on) (NP (DT a) (NN marriage)))) (NN license))))) (VP (AUX does) (PP (TO to) (NP (DT the) (NN term) (NN marriage))))))))))) (. .)))

