root(ROOT-0, is-3)
det(issue-2, the-1)
nsubj(is-3, issue-2)
neg(is-3, not-4)
advmod(is-3, always-5)
prep(is-3, about-6)
pcomp(about-6, excluding-7)
dobj(excluding-7, gays-8)
prep(excluding-7, from-9)
amod(things-11, different-10)
pobj(from-9, things-11)
