root(ROOT-0, lie-2)
nsubj(lie-2, politicians-1)
cc(lie-2, but-3)
conj(lie-2, holds-4)
mark(is-7, that-5)
expl(is-7, there-6)
ccomp(holds-4, is-7)
amod(point-9, little-8)
nsubj(is-7, point-9)
prep(point-9, in-10)
pcomp(in-10, having-11)
amod(discourse-13, political-12)
dobj(having-11, discourse-13)
