root(ROOT-0, mean-9)
advmod(calling-2, simply-1)
csubj(mean-9, calling-2)
dobj(calling-2, something-3)
amod(something-3, moral-4)
cc(moral-4, or-5)
conj(moral-4, religious-6)
aux(mean-9, does-7)
neg(mean-9, not-8)
nsubj(prejudice-14, it-10)
aux(prejudice-14, ca-11)
neg(prejudice-14, n't-12)
cop(prejudice-14, be-13)
ccomp(mean-9, prejudice-14)
prep(prejudice-14, at-15)
det(time-18, the-16)
amod(time-18, same-17)
pobj(at-15, time-18)
