root(ROOT-0, view-6)
prep_of(view-6, this-2)
amod(people-5, many-4)
nsubj(view-6, people-5)
det(marriage-10, the-7)
nn(marriage-10, term-8)
amod(marriage-10, gay-9)
dobj(view-6, marriage-10)
det(oxymoron-13, an-12)
prep_as(marriage-10, oxymoron-13)
