root(ROOT-0, making-3)
nsubj(making-3, someone-1)
aux(making-3, is-2)
dobj(making-3, religion-4)
prep(making-3, into-5)
pobj(into-5, law-6)
prep(making-3, by-7)
pcomp(by-7, saying-8)
nsubj(be-11, marriage-9)
aux(be-11, should-10)
ccomp(saying-8, be-11)
prep(be-11, between-12)
det(couple-15, a-13)
amod(couple-15, heterosexual-14)
pobj(between-12, couple-15)
