root(ROOT-0, have-6)
nsubj(have-6, S1-1)
det(woman-4, the-3)
conj_and(S1-1, woman-4)
nsubj(have-6, woman-4)
dep(have-6, both-5)
poss(opinions-9, their-7)
amod(opinions-9, own-8)
dobj(have-6, opinions-9)
