root(ROOT-0, have-6)
det(couple-3, a-1)
amod(couple-3, gay-2)
nsubj(have-6, couple-3)
aux(have-6, does-4)
neg(have-6, not-5)
det(option-8, the-7)
dobj(have-6, option-8)
aux(make-10, to-9)
vmod(option-8, make-10)
det(choice-13, that-11)
amod(choice-13, same-12)
dobj(make-10, choice-13)
prep(make-10, to-14)
