root(ROOT-0, oppose-19)
mark(support-7, if-1)
nsubj(support-7, people-2)
det(wing-6, the-4)
amod(wing-6, right-5)
prep_on(people-2, wing-6)
advcl(oppose-19, support-7)
det(ban-9, a-8)
dobj(support-7, ban-9)
amod(marriage-12, gay-11)
prep_on(ban-9, marriage-12)
advmod(wing-17, then-14)
det(wing-17, the-15)
amod(wing-17, left-16)
nsubj(oppose-19, wing-17)
aux(oppose-19, must-18)
det(ban-21, a-20)
dobj(oppose-19, ban-21)
amod(marriage-24, gay-23)
prep_on(oppose-19, marriage-24)
