root(ROOT-0, right-3)
nsubj(right-3, it-1)
cop(right-3, 's-2)
nsubj(has-5, it-4)
ccomp(right-3, has-5)
dobj(has-5, nothing-6)
aux(do-8, to-7)
vmod(nothing-6, do-8)
det(bible-11, the-10)
prep_with(do-8, bible-11)
nsubj(has-14, it-13)
parataxis(right-3, has-14)
dobj(has-14, everything-15)
aux(do-17, to-16)
vmod(everything-15, do-17)
amod(fallacy-22, slippery-19)
nn(fallacy-22, slop-20)
amod(fallacy-22, logical-21)
prep_with(do-17, fallacy-22)
