root(ROOT-0, entitled-3)
nsubjpass(entitled-3, homosexuals-1)
auxpass(entitled-3, are-2)
prep(entitled-3, to-4)
poss(rights-6, their-5)
pobj(to-4, rights-6)
cc(entitled-3, but-8)
aux(need-11, do-9)
neg(need-11, not-10)
conj(entitled-3, need-11)
aux(redefine-13, to-12)
xcomp(need-11, redefine-13)
dobj(redefine-13, marriage-14)
mark(get-18, in-15)
dep(get-18, order-16)
aux(get-18, to-17)
advcl(redefine-13, get-18)
dobj(get-18, them-19)
