(S1 (NP (NNP <PARAGRAPH>)))

(S1 (S (NP (NNP S1)) (VP (VBZ argues) (SBAR (IN that) (S (S (VP (VBG allowing) (NP (JJ gay) (NN marriage)))) (VP (MD would) (VP (VB set) (NP (NP (DT a) (NN precedent)) (SBAR (WHNP (WDT that)) (S (VP (MD would) (VP (AUX be) (VP (VBN used) (S (VP (TO to) (VP (VB allow) (NP (NN marriage)) (PP (IN for) (NP (NP (JJ other) (NNS forms)) (PP (IN of) (NP (ADJP (RB traditionally) (RB socially) (JJ unacceptable)) (JJ intimate) (CC or) (JJ sexual) (NNS relationships))) (, ,) (PP (JJ such) (IN as) (NP (NP (NN incest)) (PP (IN between) (NP (PDT half) (NP (NNS brothers)) (CC or) (NP (NP (DT a) (NX (NX (NN mother)) (CC and) (NX (NN son)))) (, ,) (NP (NN and/or) (NN polygamy))))))))))))))))))))))) (. .)))

(S1 (S (NP (NNP S2)) (VP (VP (AUX is) (PP (IN in) (NP (DT a) (ADJP (CD 15) (NN year) (NN male) (JJ homosexual)) (NN relationship)))) (CC and) (VP (AUX is) (VP (VBG anticipating) (NP (NP (JJ twin) (NNS children)) (SBAR (WHNP (WDT that)) (S (VP (AUX are) (RB biologically) (ADJP (VBN related) (PP (TO to) (NP (PRP him))))))))))) (. .)))

(S1 (S (NP (PRP He)) (VP (VBZ challenges) (S (NP (NNP S1)) (VP (TO to) (VP (VB explain) (SBAR (WHADVP (WRB why)) (S (NP (NP (PRP he)) (CC and) (NP (PRP$ his) (NN family))) (VP (MD should) (RB not) (VP (AUX be) (ADJP (VBN entitled) (PP (TO to) (NP (NP (DT the) (JJ many) (NNS benefits)) (VP (VBN associated) (PP (IN with) (NP (NN marriage)))) (, ,) (PP (JJ such) (IN as) (NP (JJ social) (NN security) (NN surviver) (NN status)))))))))))))) (. .)))

(S1 (S (NP (NNP S1)) (VP (VBZ provides) (NP (DT a) (JJ putative) (NN explanation)) (PP (IN by) (S (VP (VBG noting) (SBAR (IN that) (S (NP (PRP$ his) (NNS children)) (VP (AUX are) (VP (VBN outsourced) (, ,) (S (VP (VBG meaning) (SBAR (IN that) (S (NP (NP (CD one)) (PP (IN of) (NP (NP (DT the) (NNS parents)) (PP (IN of) (NP (DT the) (NNS children)))))) (VP (AUX is) (RB not) (NP (NP (NN part)) (PP (IN of) (NP (NP (DT the) (NN family)) (VP (VBN intended) (S (VP (TO to) (VP (VB receive) (NP (NP (DT the) (NNS benefits)) (PP (IN of) (NP (NN marriage)))))))))))))))))))))))) (. .)))

(S1 (S (NP (NNP S1)) (ADVP (RB also)) (VP (VP (VBZ notes) (SBAR (IN that) (S (NP (NNS others)) (VP (AUX do) (RB not) (VP (VB qualify)))))) (, ,) (CC and) (VP (VBZ likens) (NP (NNP S2)) (PP (TO to) (NP (NP (DT a) (JJ single) (NN mother)) (SBAR (WHNP (WP who)) (S (VP (VP (AUX has) (NP (JJ many) (NNS children))) (CC and) (VP (ADVP (RB then)) (VBZ complains) (PP (IN about) (NP (NP (ADJP (RB not) (JJ enough)) (NN help)) (PP (IN from) (NP (DT the) (NN government))))))))))))) (. .)))

(S1 (S (NP (NNP S1)) (ADVP (RB repeatedly)) (VP (VBZ compares) (NP (JJ gay) (NNS relationships)) (PP (TO to) (NP (NP (JJ other) (NNS types)) (PP (IN of) (NP (NNS relationships))) (SBAR (WHNP (WDT which)) (S (NP (PRP he)) (VP (VBZ considers) (S (VP (TO to) (VP (AUX be) (ADJP (JJ devious)) (SBAR (IN in) (NN order) (S (VP (TO to) (VP (VB justify) (S (VP (VBG excluding) (NP (NP (NNS gays)) (PP (IN from) (NP (NN marriage) (NNS rights))))))))))))))))))) (. .)))

