(S1 (NP (NNP <PARAGRAPH>)))

(S1 (S (NP (NNP S1)) (VP (VBZ believes) (SBAR (IN that) (S (NP (NP (JJ gay) (NNS couples)) (, ,) (CC and) (NP (NP (PRP$ their) (NNS rights)) (PP (IN in) (NP (NP (NN regard)) (PP (TO to) (NP (NN marriage)))))) (, ,)) (VP (AUX are) (ADJP (RB no) (JJ different) (PP (IN than) (NP (NP (JJ other) (JJ deviant) (NNS relationships)) (, ,) (PP (JJ such) (IN as) (NP (JJ incestuous) (CC and) (JJ polygamous) (NNS relationships)))))))))) (. .)))

(S1 (S (NP (PRP He)) (VP (AUX does) (RB not) (VP (VB feel) (SBAR (IN that) (S (NP (JJ gay) (NN marriage)) (VP (MD should) (VP (AUX be) (VP (VBN prohibited) (, ,) (SBAR (RB rather) (IN that) (S (S (NP (PRP it)) (VP (AUX is) (ADJP (RB simply) (JJ different) (PP (IN than) (NP (DT a) (JJ normal) (JJ heterosexual) (NN marriage)))))) (, ,) (CC and) (S (S (VP (TO to) (VP (VB recognize) (NP (DT this) (NN difference))))) (VP (AUX is) (RB not) (NP (NN discrimination))))))))))))) (. .)))

(S1 (S (NP (PRP He)) (VP (VBZ feels) (SBAR (IN that) (SBAR (IN if) (S (NP (JJ gay) (NNS relationships)) (VP (AUX were) (S (VP (TO to) (VP (AUX be) (VP (VBN allowed) (S (RB then) (RB not) (VP (VBG extending) (NP (NP (DT the) (JJ same) (NNS benefits)) (PP (TO to) (NP (NP (DT all) (NNS forms)) (PP (IN of) (NP (NP (NNS relationships)) (PP (IN between) (S (VP (VBG consenting) (SBAR (S (NP (NNS adults)) (VP (MD would) (ADVP (RB then)) (VP (AUX be) (ADJP (JJ discriminatory))))))))))))))))))))))))) (. .)))

(S1 (S (NP (PRP He)) (VP (VBZ feels) (SBAR (SBAR (IN that) (S (NP (NP (JJ gay) (NNS couples)) (SBAR (WHNP (WP who)) (S (VP (AUX have) (NP (NNS children)) (PP (IN through) (NP (NNS surrogates))))))) (VP (AUX have) (VP (VBN outsourced) (NP (PRP$ their) (NNS children)))))) (, ,) (CC and) (SBAR (S (NP (PRP he)) (VP (MD should) (ADVP (RB therefore)) (RB not) (VP (AUX be) (ADJP (JJ responsible) (PP (IN for) (NP (PRP them)))))))))) (. .)))

(S1 (S (NP (NNP S2)) (VP (VBZ makes) (NP (DT the) (NN case)) (SBAR (IN that) (S (NP (PRP he)) (VP (VP (AUX has) (VP (AUX been) (PP (IN with) (NP (PRP$ his) (NN partner))) (PP (IN for) (NP (CD 15) (NNS years))))) (, ,) (CC and) (VP (MD will) (VP (AUX be) (VP (AUXG having) (NP (PRP$ his) (JJ own) (JJ biological) (NNS children)) (ADVP (RB soon))))))))) (. .)))

(S1 (S (NP (PRP He)) (VP (VBZ feels) (SBAR (IN that) (S (NP (PRP$ his) (NN family)) (VP (MD should) (VP (AUX be) (VP (VBN afforded) (NP (NP (NP (DT the) (JJ same) (NNS rights)) (PP (IN as) (NP (NP (DT a) (JJ heterosexual) (NN couple)) (, ,) (SBAR (WHNP (WDT that)) (S (NP (PRP$ his) (NN husband)) (VP (MD should) (VP (VB gain) (NP (JJ automatic) (NN custody)) (SBAR (IN if) (S (NP (PRP he)) (VP (VBZ dies))))))))))) (, ,) (NP (NP (NN survivor) (NNS benefits)) (PP (IN from) (NP (JJ social) (NN security)))) (, ,) (CC and) (NP (NNS others))))))))) (. .)))

(S1 (S (S (NP (PRP He)) (VP (AUX does) (RB not) (VP (VB see) (NP (NP (PRP$ his) (NN relationship)) (PP (IN with) (NP (PRP$ his) (NN husband)))) (PP (IN as) (S (VP (AUXG being) (NP (NP (DT the) (JJ same)) (PP (IN as) (NP (NP (JJ other) (NNS forms)) (PP (IN of) (NP (JJ non-sanctioned) (NNS relationships)))))))))))) (, ,) (CC and) (S (NP (NP (IN that) (DT each) (JJ new) (NN form)) (PP (IN of) (NP (NN marriage) (NNS arrangements)))) (VP (MD would) (VP (AUX need) (S (VP (TO to) (VP (AUX be) (VP (VBN argued) (PP (IN on) (NP (PRP$ their) (JJ own) (NNS merits))) (ADVP (RB individually))))))))) (. .)))

