(S1 (NP (NNP <PARAGRAPH>)))

(S1 (S (NP (NNP S1)) (VP (VBZ states) (SBAR (IN that) (S (NP (JJ homosexual) (NNS acts)) (VP (VP (AUX are) (ADJP (RB very) (JJ unappealing) (CC and) (JJ immoral))) (, ,) (CC and) (VP (AUX does) (RB not) (VP (VB see) (NP (DT any) (NN problem)) (PP (IN with) (S (VP (VBG denying) (NP (NP (DT the) (NN sanctity)) (PP (IN of) (NP (NN marriage)))) (, ,) (PP (TO to) (NP (NP (NNS couples)) (SBAR (WHNP (WP who)) (S (VP (VBP engage) (PP (IN in) (NP (JJ such) (NN behavior))))))))))))))))) (. .)))

(S1 (S (NP (PRP He)) (VP (VP (VBZ doubts) (SBAR (IN whether) (S (NP (NNP S2)) (VP (AUX has) (ADVP (RB ever)) (VP (AUX had) (NP (DT a) (JJ lasting) (NN relationship))))))) (, ,) (CC and) (VP (VBZ states) (SBAR (IN that) (S (NP (PRP he)) (VP (AUX has) (VP (AUX been) (ADJP (RB faithfully) (VBN married)) (PP (IN for) (NP (CD 31) (NNS years))))))))) (. .)))

(S1 (S (NP (PRP He)) (VP (VBZ feels) (SBAR (IN that) (S (NP (EX there)) (VP (AUX is) (NP (NP (DT a) (JJ large) (NN amount)) (PP (IN of) (NP (NP (JJ deviant) (NNS activities)) (VP (VBG taking) (NP (NN place)) (PP (IN throughout) (NP (DT the) (JJ gay) (NN community)))) (, ,) (PP (VBG citing) (NP (NP (NP (NN glory) (NNS holes)) (PP (IN in) (NP (NP (NN highway) (NNS restrooms)) (PRN (-LRB- -LRB-) (SBAR (WHPP (IN of) (WHNP (WDT which))) (S (NP (PRP he)) (VP (VBZ says) (SBAR (IN that) (S (NP (DT any) (JJ gay) (NN man)) (VP (MD will) (VP (VB talk) (PP (IN about) (SBAR (IN if) (S (VP (VBN asked)))))))))))) (-RRB- -RRB-))))) (CC and) (NP (NP (DT a) (NN restroom)) (PP (IN on) (NP (NP (DT the) (NNP I-75) (NN highway)) (VP (AUXG being) (VP (VBN closed) (PRT (RP down)) (PP (JJ due) (PP (TO to) (NP (NP (JJ gay) (NNS encounters)) (VP (VBG happening) (ADVP (RB there)))))))))))))))))))) (. .)))

(S1 (S (NP (NNP S2)) (VP (VBZ feels) (SBAR (SBAR (IN that) (S (NP (NP (DT the) (NN sanctity)) (PP (IN of) (NP (NN marriage)))) (VP (AUX has) (VP (AUX been) (VP (VBN denied) (PP (TO to) (NP (ADJP (JJ loving) (CC and) (JJ committed)) (NNS couples))) (NP (ADJP (JJ due) (PP (TO to) (NP (NNS americans)))) (NN paranoia)) (PP (IN over) (NP (NN homosexuality)))))))) (, ,) (CC and) (SBAR (IN that) (S (NP (NP (DT those)) (SBAR (WHNP (WP who)) (S (VP (VBP vote) (PRT (RP away)) (NP (NP (DT the) (NNS rights)) (PP (IN of) (NP (NNS others)))))))) (VP (VBP lack) (NP (JJ moral) (NN character))))))) (. .)))

(S1 (S (NP (PRP He)) (VP (VP (VBZ doubts) (SBAR (WHADVP (WRB how)) (S (NP (NP (NNP S1)) (PRN (-LRB- -LRB-) (PP (IN as) (NP (DT an) (JJ outspoken) (, ,) (JJ straight) (CC and) (JJ conservative) (NN man))) (-RRB- -RRB-))) (VP (MD would) (VP (AUX have) (VP (VBD came) (PP (IN by) (NP (PRP$ his) (NN information))))))))) (, ,) (CC and) (VP (VBZ states) (SBAR (IN that) (S (NP (NNP S1)) (VP (MD must) (VP (VB hang) (PRT (RP out)) (PP (IN with) (NP (DT a) (ADJP (RB very) (RB sexually) (JJ liberal)) (JJ gay) (NN crowd))))))))) (. .)))

(S1 (S (NP (PRP He)) (VP (VBZ states) (NP (PRP$ his) (JJ own) (NN confusion)) (PP (IN as) (PP (TO to) (SBAR (WHADVP (WRB why)) (S (NP (NNP S1)) (VP (AUX has) (NP (NP (DT any) (NN interest)) (PP (IN in) (NP (NP (DT the) (JJ private) (NNS lives)) (PP (IN of) (NP (NP (NNS homosexuals) (CC and) (JJ further) (NNS questions)) (SBAR (IN whether) (S (NP (NP (NNP S1) (POS 's)) (NN wife)) (VP (AUX is) (ADJP (JJ aware) (PP (IN of) (NP (DT the) (NN interest)))))))))))))))))) (. .)))

