root(ROOT-0, see-4)
nsubj(see-4, S2-1)
nsubj(understand-10, S2-1)
aux(see-4, does-2)
neg(see-4, n't-3)
det(inconsistency-6, the-5)
dobj(see-4, inconsistency-6)
aux(understand-10, does-8)
neg(understand-10, n't-9)
conj_and(see-4, understand-10)
advmod(keeps-13, why-11)
nsubj(keeps-13, S1-12)
ccomp(understand-10, keeps-13)
xcomp(keeps-13, calling-14)
nsubj(that-16, it-15)
xcomp(calling-14, that-16)
